{
  "connection": "default",
  "collectionName": "product",
  "info": {
    "name": "product",
    "description": ""
  },
  "options": {
    "timestamps": true
  },
  "attributes": {
    "name": {
      "default": "",
      "type": "string",
      "required": true
    },
    "price": {
      "default": "",
      "type": "decimal",
      "required": true
    },
    "description": {
      "default": "",
      "type": "text",
      "required": true
    },
    "images": {
      "collection": "file",
      "via": "related",
      "plugin": "upload",
      "required": true
    },
    "release": {
      "default": false,
      "type": "boolean",
      "required": true
    }
  }
}